{
	"info": {
		"_postman_id": "63afe6e6-b932-4973-b4f4-8a9289ded117",
		"name": "AcortadorDacodes",
		"schema": "https://schema.getpostman.com/json/collection/v2.1.0/collection.json"
	},
	"item": [
		{
			"name": "Get Shor Url",
			"request": {
				"method": "POST",
				"header": [],
				"body": {
					"mode": "formdata",
					"formdata": [
						{
							"key": "url",
							"value": "http://www.facebook.com",
							"type": "text"
						}
					]
				},
				"url": {
					"raw": "http://dacodespruebas.dv/api/get-short-url",
					"protocol": "http",
					"host": [
						"dacodespruebas",
						"dv"
					],
					"path": [
						"api",
						"get-short-url"
					]
				},
				"description": "Acorta una url"
			},
			"response": []
		},
		{
			"name": "Get Shor Url Array",
			"request": {
				"method": "POST",
				"header": [],
				"body": {
					"mode": "formdata",
					"formdata": [
						{
							"key": "url[]",
							"value": "https://www.facebook.com/",
							"type": "text"
						},
						{
							"key": "url[]",
							"value": "https://www.facebook.co",
							"type": "text"
						}
					]
				},
				"url": {
					"raw": "http://dacodespruebas.dv/api/get-short-url-array",
					"protocol": "http",
					"host": [
						"dacodespruebas",
						"dv"
					],
					"path": [
						"api",
						"get-short-url-array"
					]
				},
				"description": "Acorta una url"
			},
			"response": []
		},
		{
			"name": "Get Original url",
			"request": {
				"method": "GET",
				"header": [],
				"body": {
					"mode": "raw",
					"raw": ""
				},
				"url": {
					"raw": "http://dacodespruebas.dv/1111",
					"protocol": "http",
					"host": [
						"dacodespruebas",
						"dv"
					],
					"path": [
						"1111"
					]
				},
				"description": "Obtinene la url original a partir de la url corta"
			},
			"response": []
		}
	]
}